Lab 3 – “All Labs“
…
Snohomish
2020-01-22
0.0000011960335

Snohomish
2020-01-21
0.0000011960335

# question 4
latest_date <- max(popandcovid$date, na.rm = TRUE)  # Get the latest date
    popandcovid %>%
      filter(date >= (latest_date - 13))  # Filter data for the last 14 days (including the latest date)

# A tibble: 45,601 × 26
   date       county   state   fips  cases deaths CTYNAME        POPESTIMATE2021
   <date>     <chr>    <chr>   <chr> <dbl>  <dbl> <chr>                    <dbl>
 1 2022-04-30 Autauga  Alabama 01001 15827    216 Autauga County           59203
 2 2022-04-30 Baldwin  Alabama 01003 55643    680 Baldwin County          239439
 3 2022-04-30 Barbour  Alabama 01005  5668     98 Barbour County           24533
 4 2022-04-30 Bibb     Alabama 01007  6442    104 Bibb County              22359
 5 2022-04-30 Blount   Alabama 01009 14980    243 Blount County            59079
 6 2022-04-30 Bullock  Alabama 01011  2318     54 Bullock County           10143
 7 2022-04-30 Butler   Alabama 01013  5064    129 Butler County            18890
 8 2022-04-30 Calhoun  Alabama 01015 32399    626 Calhoun County          115678
 9 2022-04-30 Chambers Alabama 01017  8486    162 Chambers Coun…           34488
10 2022-04-30 Cherokee Alabama 01019  5126     86 Cherokee Coun…           25074
# ℹ 45,591 more rows
# ℹ 18 more variables: NPOPCHG2021 <dbl>, BIRTHS2021 <dbl>, DEATHS2021 <dbl>,
#   NATURALCHG2021 <dbl>, INTERNATIONALMIG2021 <dbl>, DOMESTICMIG2021 <dbl>,
#   NETMIG2021 <dbl>, RESIDUAL2021 <dbl>, GQESTIMATES2021 <dbl>,
#   RBIRTH2021 <dbl>, RDEATH2021 <dbl>, RNATURALCHG2021 <dbl>,
#   RINTERNATIONALMIG2021 <dbl>, RDOMESTICMIG2021 <dbl>, RNETMIG2021 <dbl>,
#   new_cases <dbl>, cases_percap <dbl>, deaths_percap <dbl>
…
  group_by(county) %>% 
  summarize(sumofnewcases14d = sum(new_cases, na.rm = TRUE), population = first(POPESTIMATE2021)) %>% 
  
mutate(casesper100k = (sumofnewcases14d/population) *100000)

watchlist_count <- newinlast14days %>% 
  filter(casesper100k>100) %>% 
  nrow()

top_5_counties <- newinlast14days %>% 
slice_max(order_by = casesper100k, n = 5)

print(newinlast14days)

# A tibble: 1,932 × 4
   county    sumofnewcases14d population casesper100k
   <chr>                <dbl>      <dbl>        <dbl>
 1 Abbeville         -6179046      24262   -25467999.
 2 Acadia             3635499      57217     6353879.
 3 Accomack            657691      33410     1968545.
 4 Ada               39926168     513025     7782499.
 5 Adair            -16495630       7524  -219240165.
 6 Adams             -6056953      35991   -16829077.
 7 Addison          -21332396      37408   -57026294.
 8 Adjuntas         -33900527         NA          NA 
 9 Aguada              991311         NA          NA 
10 Aguadilla           303296         NA          NA 
# ℹ 1,922 more rows
…
